<?xml version="1.0" encoding="UTF-8" standalone="no"?>
<svg width="34px" height="58px" viewBox="0 0 34 58" version="1.1" xmlns="http://www.w3.org/2000/svg" xmlns:xlink="http://www.w3.org/1999/xlink" xmlns:sketch="http://www.bohemiancoding.com/sketch/ns">
    <!-- Generator: Sketch 3.3.3 (12072) - http://www.bohemiancoding.com/sketch -->
    <title>downloads_ios</title>
    <desc>Created with Sketch.</desc>
    <defs></defs>
    <g id="design" stroke="none" stroke-width="1" fill="none" fill-rule="evenodd" sketch:type="MSPage">
        <g id="050-tv_desktop_download" sketch:type="MSArtboardGroup" transform="translate(-947.000000, -510.000000)">
            <g id="Devices" sketch:type="MSLayerGroup" transform="translate(0.000000, 419.000000)">
                <g id="iOS" transform="translate(948.000000, 92.000000)" sketch:type="MSShapeGroup">
                    <g id="downloads_ios">
                        <path d="M25.9459459,0 L5.18918919,0 C2.33513514,0 0,2.32615385 0,5.16923077 L0,49.9692308 C0,52.8123077 2.33513514,55.1384615 5.18918919,55.1384615 L25.9459459,55.1384615 C28.8,55.1384615 31.1351351,52.8123077 31.1351351,49.9692308 L31.1351351,5.16923077 C31.1351351,2.32615385 28.8,0 25.9459459,0 L25.9459459,0 Z" id="Stroke-1" stroke="#4A4A4A" stroke-width="2"></path>
                        <path d="M19.6486486,6 L12.7297297,6 C11.7783784,6 11,6.77538462 11,7.72307692 C11,8.67076923 11.7783784,9.44615385 12.7297297,9.44615385 L19.6486486,9.44615385 C20.6,9.44615385 21.3783784,8.67076923 21.3783784,7.72307692 C21.3783784,6.77538462 20.6,6 19.6486486,6 L19.6486486,6 Z" id="Stroke-3" fill="#52595E"></path>
                        <path d="M22,33.4242197 L22,33.4559038 C21.6796381,34.4261427 21.2226823,35.2576755 20.6650414,36.0293604 C20.1559828,36.7299321 19.5321572,37.6727114 18.4182835,37.6727114 C17.4557896,37.6727114 16.816474,37.0538144 15.8300409,37.0369162 C14.7865764,37.020018 14.2127414,37.5544239 13.2586966,37.6889055 L12.933406,37.6889055 C12.2328344,37.5875162 11.6674484,37.0326917 11.2555546,36.5327863 C10.0409957,35.055601 9.10244093,33.1475115 8.92782609,30.7057201 L8.92782609,29.9882502 C9.00175576,28.2406936 9.85089083,26.8198358 10.9795505,26.1312337 C11.5752124,25.7651058 12.3940715,25.453193 13.3058708,25.5926032 C13.6966419,25.6531552 14.0958621,25.7869327 14.4457959,25.919302 C14.7774232,26.0467426 15.1921335,26.2727562 15.5850169,26.2607866 C15.8511637,26.2530416 16.1159023,26.1143355 16.3841614,26.0164667 C17.1699282,25.7327176 17.940205,25.407427 18.9555058,25.560215 C20.1756974,25.7446871 21.0417307,26.286838 21.5768406,27.1232995 C20.5446416,27.7802174 19.7285989,28.7701709 19.8680091,30.460696 C19.9919293,31.9963209 20.8847181,32.8947424 22,33.4242197 Z M18.5241622,21.4726067 L18.6382251,21.4726067 C18.7297571,22.6033786 18.2981486,23.4482891 17.7736,24.0601452 C17.2589087,24.6677766 16.5541125,25.2571017 15.4141874,25.167682 C15.3381454,24.0531042 15.770458,23.2708579 16.2943025,22.6604101 C16.780126,22.0915037 17.6708025,21.5852614 18.5241622,21.4726067 Z" id="Shape" fill="#4A4A4A"></path>
                    </g>
                </g>
            </g>
        </g>
    </g>
</svg>