<?xml version="1.0" encoding="UTF-8" standalone="no"?>
<svg width="36px" height="36px" viewBox="0 0 36 36" version="1.1" xmlns="http://www.w3.org/2000/svg" xmlns:xlink="http://www.w3.org/1999/xlink" xmlns:sketch="http://www.bohemiancoding.com/sketch/ns">
    <!-- Generator: Sketch 3.3.3 (12072) - http://www.bohemiancoding.com/sketch -->
    <title>social_twitter</title>
    <desc>Created with Sketch.</desc>
    <defs></defs>
    <g id="design" stroke="none" stroke-width="1" fill="none" fill-rule="evenodd" sketch:type="MSPage">
        <g id="050-tv_desktop_download" sketch:type="MSArtboardGroup" transform="translate(-1245.000000, -3905.000000)" fill="#FFFFFF">
            <g id="Footer" sketch:type="MSLayerGroup" transform="translate(0.000000, 3005.000000)">
                <g id="Social" transform="translate(1194.000000, 900.000000)" sketch:type="MSShapeGroup">
                    <g id="Twitter" transform="translate(51.000000, 0.000000)">
                        <path d="M0,0 L0,36 L36,36 L36,0 L0,0 Z M3.90857143,26.5355357 C4.31449938,26.5809645 4.76681232,26.6036786 5.26552381,26.6036786 C7.87506067,26.6036786 10.2004131,25.8200436 12.2416508,24.25275 C11.0238669,24.2300356 9.93367677,23.8637714 8.97104762,23.1539464 C8.00841847,22.4441215 7.34734571,21.5383984 6.98780952,20.43675 C7.3705416,20.493536 7.72427351,20.5219286 8.04901587,20.5219286 C8.54772736,20.5219286 9.04063249,20.4594649 9.52774603,20.3345357 C8.22877657,20.0733201 7.15308363,19.4401657 6.30063492,18.4350536 C5.44818621,17.4299414 5.02196825,16.2630066 5.02196825,14.9342143 L5.02196825,14.8660714 C5.81062828,15.297645 6.65726532,15.5304641 7.56190476,15.5645357 C6.79644062,15.0648189 6.18755782,14.4117897 5.7352381,13.6054286 C5.28291837,12.7990674 5.0567619,11.9245761 5.0567619,10.9819286 C5.0567619,9.982495 5.31191279,9.05689712 5.82222222,8.20510714 C7.22557315,9.89732989 8.93334444,11.2516556 10.9455873,12.268125 C12.9578302,13.2845944 15.1121155,13.8496066 17.4085079,13.9631786 C17.3157244,13.531605 17.2693333,13.1113949 17.2693333,12.7025357 C17.2693333,11.180671 17.8173279,9.88313037 18.9133333,8.809875 C20.0093388,7.73661963 21.3343838,7.2 22.8885079,7.2 C24.5122198,7.2 25.8807563,7.77920849 26.9941587,8.93764286 C28.2583344,8.69914166 29.4471055,8.25621752 30.5605079,7.60885714 C30.1313841,8.9149351 29.3079426,9.92571071 28.0901587,10.6412143 C29.1687673,10.5276423 30.2473597,10.2437166 31.3259683,9.78942857 C30.5489062,10.9024341 29.609487,11.8507461 28.5076825,12.6343929 C28.5192805,12.7933937 28.5250794,13.0318913 28.5250794,13.3498929 C28.5250794,14.8263288 28.3047218,16.2999034 27.864,17.7706607 C27.4232782,19.2414181 26.7535071,20.652529 25.8546667,22.0040357 C24.9558262,23.3555425 23.8859321,24.5508698 22.6449524,25.5900536 C21.4039726,26.6292373 19.9078606,27.4583005 18.1565714,28.0772679 C16.4052822,28.6962352 14.5322428,29.0057143 12.5373968,29.0057143 C9.39435466,29.0057143 6.51810829,28.1823297 3.90857143,26.5355357 Z" id="social_twitter"></path>
                    </g>
                </g>
            </g>
        </g>
    </g>
</svg>